<?xml version="1.0" encoding="utf-8"?>
<!-- Generator: Adobe Illustrator 15.0.0, SVG Export Plug-In  -->
<!DOCTYPE svg PUBLIC "-//W3C//DTD SVG 1.1//EN" "http://www.w3.org/Graphics/SVG/1.1/DTD/svg11.dtd" [
	<!ENTITY ns_flows "http://ns.adobe.com/Flows/1.0/">
]>
<svg version="1.1"
	 xmlns="http://www.w3.org/2000/svg" xmlns:xlink="http://www.w3.org/1999/xlink" xmlns:a="http://ns.adobe.com/AdobeSVGViewerExtensions/3.0/"
	 x="0px" y="0px" width="220px" height="166px" viewBox="0 0 220 166" enable-background="new 0 0 220 166" xml:space="preserve">
<defs>
</defs>
<g>
	<defs>
		<rect id="SVGID_1_" width="220.095" height="166.179"/>
	</defs>
	<clipPath id="SVGID_2_">
		<use xlink:href="#SVGID_1_"  overflow="visible"/>
	</clipPath>
	<path clip-path="url(#SVGID_2_)" fill="#FCE500" d="M156.955,87.702c0,43.342-35.136,78.478-78.477,78.478
		C35.136,166.179,0,131.043,0,87.702S35.136,9.225,78.478,9.225C121.819,9.225,156.955,44.36,156.955,87.702"/>
	
		<path clip-path="url(#SVGID_2_)" fill="none" stroke="#080B11" stroke-width="8.463" stroke-linecap="square" stroke-linejoin="round" d="
		M82.22,109.639c0,0,2.579,21.99,1.951,22.115c-0.627,0.125-7.343,3.254-7.343,3.254"/>
	
		<path clip-path="url(#SVGID_2_)" fill="none" stroke="#080B11" stroke-width="7.405" stroke-linecap="round" stroke-linejoin="round" d="
		M106.566,54.44c-3.286,3.028-8.405,2.818-11.433-0.467c-3.028-3.286-4.771-10.546-1.485-13.574
		c3.286-3.028,10.356-0.678,13.385,2.608C110.062,46.293,109.851,51.412,106.566,54.44z"/>
	
		<path clip-path="url(#SVGID_2_)" fill="none" stroke="#080B11" stroke-width="7.405" stroke-linecap="round" stroke-linejoin="round" d="
		M159.003,52.345c3.286,3.028,8.403,2.819,11.433-0.467c3.027-3.286,4.771-10.546,1.484-13.574
		c-3.286-3.027-10.356-0.678-13.385,2.608C155.508,44.199,155.717,49.316,159.003,52.345z"/>
	<path clip-path="url(#SVGID_2_)" fill="#FFFFFF" d="M177.784,64.271c-9.067-16.72-28.738-28.626-49.561-24.462
		c-14.963,2.992-25.906,12.53-33.782,23.487c-2.88-0.27-22.743-1.543-27.409,14.251c-4.752,16.083,5.65,25.909,9.196,28.703
		c-0.022,0.111-0.032,0.17-0.032,0.17s45.721,41.385,88.29,10.642c1.101-0.795,2.135-1.609,3.128-2.437l-0.067,0.391
		c0,0,29.593-0.077,31.343-20.193C200.383,77.653,182.933,67.021,177.784,64.271"/>
	
		<path clip-path="url(#SVGID_2_)" fill="none" stroke="#080B11" stroke-width="7.405" stroke-linecap="round" stroke-linejoin="round" d="
		M177.784,64.271c-9.067-16.72-28.738-28.626-49.561-24.462c-14.963,2.992-25.906,12.53-33.782,23.487
		c-2.88-0.27-22.743-1.543-27.409,14.251c-4.752,16.083,5.65,25.909,9.196,28.703c-0.022,0.111-0.032,0.17-0.032,0.17
		s45.721,41.385,88.29,10.642c1.101-0.795,2.135-1.609,3.128-2.437l-0.067,0.391c0,0,29.593-0.077,31.343-20.193
		C200.383,77.653,182.933,67.021,177.784,64.271z"/>
	
		<polyline clip-path="url(#SVGID_2_)" fill="none" stroke="#080B11" stroke-width="8.463" stroke-linecap="square" stroke-linejoin="round" points="
		162.786,120.57 171.036,147.507 179.065,147.656 	"/>
	
		<path clip-path="url(#SVGID_2_)" fill="none" stroke="#080B11" stroke-width="5.16" stroke-linecap="square" stroke-linejoin="round" d="
		M103.422,93.223c5.833,5.083,37.238,5.872,58.571-11.128"/>
	
		<polyline clip-path="url(#SVGID_2_)" fill="none" stroke="#080B11" stroke-width="6.06" stroke-linecap="square" stroke-linejoin="round" points="
		123.909,70.586 133.959,76.933 136.075,90.511 	"/>
	
		<line clip-path="url(#SVGID_2_)" fill="none" stroke="#080B11" stroke-width="6.06" stroke-linecap="square" stroke-linejoin="round" x1="141.872" y1="69.778" x2="133.959" y2="76.932"/>
	<path clip-path="url(#SVGID_2_)" fill="#080B11" d="M113.331,64.768c0,1.753-1.421,3.174-3.174,3.174
		c-1.753,0-3.174-1.421-3.174-3.174c0-1.753,1.421-3.174,3.174-3.174C111.91,61.593,113.331,63.014,113.331,64.768"/>
	<path clip-path="url(#SVGID_2_)" fill="#080B11" d="M161.993,64.768c0,1.753-1.421,3.174-3.174,3.174
		c-1.754,0-3.175-1.421-3.175-3.174c0-1.753,1.421-3.174,3.175-3.174C160.572,61.593,161.993,63.014,161.993,64.768"/>
	
		<path clip-path="url(#SVGID_2_)" fill="none" stroke="#080B11" stroke-width="8.463" stroke-linecap="square" stroke-linejoin="round" d="
		M81.073,63.396c-1.093-3.717-12.026-17.712-12.026-17.712"/>
	
		<path clip-path="url(#SVGID_2_)" fill="none" stroke="#080B11" stroke-width="5.824" stroke-linecap="square" stroke-linejoin="round" d="
		M67.516,42.842c-0.095-0.66,4.509-1.686,4.509-1.686l1.165-12.231"/>
	
		<path clip-path="url(#SVGID_2_)" fill="none" stroke="#080B11" stroke-width="8.463" stroke-linecap="square" stroke-linejoin="round" d="
		M69.265,43.935c0,0-4.373,2.624-5.904,1.749c-1.531-0.874,1.967-3.061,4.155-2.842c0,0,5.685,0,3.936,1.749
		c-1.75,1.749-3.932,0.312-3.932,0.312"/>
	<path clip-path="url(#SVGID_2_)" fill="#080B11" d="M218.146,85.565c-2.52-2.411-6.517-2.323-8.928,0.195
		c-2.412,2.521-2.325,6.519,0.196,8.929c2.521,2.412,6.517,2.324,8.929-0.195C220.754,91.974,220.666,87.977,218.146,85.565"/>
	
		<path clip-path="url(#SVGID_2_)" fill="none" stroke="#080B11" stroke-width="8.463" stroke-linecap="square" stroke-linejoin="round" d="
		M191.125,69.229c0,0,12.874-3.279,20.073,4.369c7.199,7.647,2.509,15.676,2.509,15.676"/>
	<path clip-path="url(#SVGID_2_)" fill="#080B11" d="M65.812,21.195c0,11.706-9.489,21.195-21.195,21.195
		c-11.705,0-21.195-9.489-21.195-21.195C23.421,9.489,32.912,0,44.616,0C56.322,0,65.812,9.489,65.812,21.195"/>
</g>
</svg>
